<?xml version="1.0" encoding="iso-8859-1"?>
<!-- Generator: Adobe Illustrator 19.0.0, SVG Export Plug-In . SVG Version: 6.00 Build 0)  -->
<svg xmlns="http://www.w3.org/2000/svg" xmlns:xlink="http://www.w3.org/1999/xlink" version="1.1" id="Capa_1" x="0px" y="0px" viewBox="0 0 307.2 307.2" style="enable-background:new 0 0 307.2 307.2;" xml:space="preserve" width="512px" height="512px">
<g>
	<g>
		<polygon points="307.2,24.136 283.064,0 153.6,129.469 24.136,0 0,24.136 129.464,153.6 0,283.064 24.136,307.2 153.6,177.736     283.064,307.2 307.2,283.064 177.736,153.6   " fill="#b7bfcc"/>
	</g>
</g>
<g>
</g>
<g>
</g>
<g>
</g>
<g>
</g>
<g>
</g>
<g>
</g>
<g>
</g>
<g>
</g>
<g>
</g>
<g>
</g>
<g>
</g>
<g>
</g>
<g>
</g>
<g>
</g>
<g>
</g>
</svg>
