<?xml version="1.0" encoding="utf-8"?>
<!-- Generator: Adobe Illustrator 15.0.0, SVG Export Plug-In . SVG Version: 6.00 Build 0)  -->
<!DOCTYPE svg PUBLIC "-//W3C//DTD SVG 1.1//EN" "http://www.w3.org/Graphics/SVG/1.1/DTD/svg11.dtd">
<svg version="1.1" id="Capa_1" xmlns="http://www.w3.org/2000/svg" xmlns:xlink="http://www.w3.org/1999/xlink" x="0px" y="0px"
	 width="512px" height="512px" viewBox="0 0 512 512" enable-background="new 0 0 512 512" xml:space="preserve">
<g>
	<path fill="#B7BFCC" d="M442.272,424.09l0.001-103.437c-0.003-5.122-1.753-9.431-5.252-12.93
		c-3.503-3.502-7.812-5.255-12.935-5.257c-5.115,0.001-9.425,1.753-12.927,5.255l-25.861,25.86L178.42,126.703l25.861-25.861
		c3.502-3.502,5.252-7.812,5.251-12.93c-0.001-5.121-1.753-9.43-5.254-12.931c-3.5-3.501-7.81-5.253-12.929-5.253H87.91
		c-5.115,0-9.428,1.751-12.929,5.253c-3.5,3.5-5.252,7.813-5.251,12.927l-0.001,103.44c0.003,5.116,1.75,9.426,5.253,12.929
		c3.504,3.504,7.815,5.252,12.931,5.255c5.117,0.002,9.428-1.749,12.93-5.251l25.863-25.862l206.88,206.88l-25.862,25.862
		c-3.502,3.502-5.255,7.812-5.256,12.927c0.006,5.118,1.756,9.431,5.258,12.934c3.498,3.498,7.811,5.246,12.929,5.253l103.438-0.004
		c5.116,0.004,9.427-1.75,12.928-5.251S442.274,429.207,442.272,424.09z"/>
</g>
</svg>
